{
	"prefix": "",
	"ownerNumber": "6285731261728",
	"nama": "Owner Aca",
	"nobot": "62857312617281",
	"bot": "MITSUHA BOTZ",
	"apiKey": "YourApiKey",
	"kunci": "@62857312617285",
	"respon": "apaansi..ngetag-ngetag..gaje",
	"namaowner": "Owner Aca"
}